{
    "terminal.external.osxExec": "iTerm2.app",
    "materialTheme.autoApplyIcons": false,
    "workbench.colorTheme": "Atom One Dark",
    "workbench.iconTheme": "eq-material-theme-icons-palenight",
    "window.zoomLevel": 0,
    "vim.leader": "<space>",
    "vim.easymotion": true,
    "vim.visualstar": true,
    "vim.statusBarColorControl": true,
    "vim.statusBarColors" : {
        "normal": "#000000",
        "insert": "#3b55a0",
        "visual": "#5f00af",
        "visualline": "#005f87",
        "visualblock": "#86592d",
        "replace": "#5f0000"
    },
    "workbench.colorCustomizations": {
        "statusBar.background": "#000000",
        "statusBar.noFolderBackground": "#000000",
        "statusBar.debuggingBackground": "#000000"
    },
    "vim.insertModeKeyBindings": [
        {
            "before": ["j","j"],
            "after": ["<Esc>"]
        }
    ],
    "vim.normalModeKeyBindings": [
        {
            "before": ["f","f"],
            "after": ["<C-w>"]
        },
        {
            "before": ["f", "i"],
            "after": [],
            "commands": [
                { "command": "workbench.action.toggleSidebarVisibility" }
            ]
        }
    ],
    "diffEditor.ignoreTrimWhitespace": true,
    "sync.gist": "33c4b6f82a11c02a50342b3f0c0404a0",
    "sync.quietSync": false,
    "sync.askGistName": false,
    "sync.removeExtensions": true,
    "sync.syncExtensions": true,
    "sync.autoUpload": true,
    "sync.autoDownload": true,
    "sync.lastUpload": "2018-06-19T09:53:01.849Z",
    "sync.lastDownload": "2018-06-15T01:06:35.880Z",
    "sync.forceDownload": false,
    "workbench.startupEditor": "none",
    "editor.minimap.showSlider": "always",
    "workbench.editor.enablePreview": false,
    "workbench.tree.horizontalScrolling": true,
    "workbench.activityBar.visible": true,
    "files.autoSave": "off",
    "vim.useSystemClipboard": true,
    "editor.tabSize": 2,
    "gitlens.views.repositories.files.layout": "tree",
    "editor.cursorBlinking": "smooth",
    "git.autofetch": true
}
